{
  "tourism/zoo": {
    "name": "Zoo",
    "fields": [
      {
        "key": "operator",
        "label": "Operatör",
        "type": "text"
      },
      {
        "key": "fee",
        "label": "Avgift",
        "type": "check"
      },
      {
        "key": "charge_fee",
        "label": "Avgiftsbelopp",
        "type": "text"
      }
    ]
  },
  "tourism/wilderness_hut": {
    "name": "Stuga (för vandrare o.d.)",
    "fields": [
      {
        "key": "operator",
        "label": "Operatör",
        "type": "text"
      },
      {
        "key": "building_area_yes",
        "label": null,
        "type": "combo"
      },
      {
        "key": "access_simple",
        "label": "Tillåten åtkomst",
        "type": "combo"
      },
      {
        "key": "fee",
        "label": "Avgift",
        "type": "check"
      },
      {
        "key": "payment_multi_fee",
        "label": null,
        "type": "multiCombo"
      },
      {
        "key": "charge_fee",
        "label": "Avgiftsbelopp",
        "type": "text"
      },
      {
        "key": "fireplace",
        "label": "Eldplats",
        "type": "check"
      }
    ]
  },
  "tourism/trail_riding_station": {
    "name": "Turridningsstation",
    "fields": [
      {
        "key": "horse_stables",
        "label": "Ridstall",
        "type": "check"
      },
      {
        "key": "horse_riding",
        "label": "Ridning",
        "type": "check"
      },
      {
        "key": "horse_dressage",
        "label": "Dressyrriding",
        "type": "check"
      }
    ]
  },
  "tourism/theme_park": {
    "name": "Nöjespark",
    "fields": [
      {
        "key": "operator",
        "label": "Operatör",
        "type": "text"
      }
    ]
  },
  "tourism/museum": {
    "name": "Museum",
    "fields": [
      {
        "key": "operator",
        "label": "Operatör",
        "type": "text"
      },
      {
        "key": "operator/type",
        "label": "Typ av operatör",
        "type": "combo"
      },
      {
        "key": "museum",
        "label": "Typ",
        "type": "combo"
      },
      {
        "key": "building_area_yes",
        "label": null,
        "type": "combo"
      }
    ]
  },
  "tourism/motel": {
    "name": "Motel",
    "fields": [
      {
        "key": "brand",
        "label": "Varumärke",
        "type": "text"
      },
      {
        "key": "email",
        "label": "E-post",
        "type": "email"
      },
      {
        "key": "building_area_yes",
        "label": null,
        "type": "combo"
      },
      {
        "key": "rooms",
        "label": "Rum",
        "type": "number"
      },
      {
        "key": "internet_access",
        "label": "Internetanslutning",
        "type": "combo"
      },
      {
        "key": "internet_access/fee",
        "label": "Internetåtkomst",
        "type": "combo"
      }
    ]
  },
  "tourism/hotel": {
    "name": "Hotell",
    "fields": [
      {
        "key": "{tourism/motel}",
        "label": null,
        "type": ""
      }
    ]
  },
  "tourism/hostel": {
    "name": "Vandrarhem",
    "fields": [
      {
        "key": "{tourism/guest_house}",
        "label": null,
        "type": ""
      }
    ]
  },
  "tourism/guest_house": {
    "name": "Gästhus",
    "fields": [
      {
        "key": "operator",
        "label": "Operatör",
        "type": "text"
      },
      {
        "key": "guest_house",
        "label": "Typ",
        "type": "combo"
      },
      {
        "key": "email",
        "label": "E-post",
        "type": "email"
      },
      {
        "key": "building_area_yes",
        "label": null,
        "type": "combo"
      },
      {
        "key": "rooms",
        "label": "Rum",
        "type": "number"
      },
      {
        "key": "internet_access",
        "label": "Internetanslutning",
        "type": "combo"
      },
      {
        "key": "internet_access/fee",
        "label": "Internetåtkomst",
        "type": "combo"
      }
    ]
  },
  "tourism/gallery": {
    "name": "Konstgalleri",
    "fields": [
      {
        "key": "operator",
        "label": "Operatör",
        "type": "text"
      },
      {
        "key": "building_area_yes",
        "label": null,
        "type": "combo"
      }
    ]
  },
  "tourism/chalet": {
    "name": "Stuga",
    "fields": [
      {
        "key": "operator",
        "label": "Operatör",
        "type": "text"
      },
      {
        "key": "email",
        "label": "E-post",
        "type": "email"
      },
      {
        "key": "building_area_yes",
        "label": null,
        "type": "combo"
      },
      {
        "key": "internet_access",
        "label": "Internetanslutning",
        "type": "combo"
      },
      {
        "key": "internet_access/fee",
        "label": "Internetåtkomst",
        "type": "combo"
      }
    ]
  },
  "tourism/caravan_site": {
    "name": "Ställplats",
    "fields": [
      {
        "key": "capacity/caravans",
        "label": "Kapacitet (Husvagn / Husbil)",
        "type": "number"
      },
      {
        "key": "sanitary_dump_station",
        "label": "Latrintömning ",
        "type": "check"
      },
      {
        "key": "power_supply",
        "label": "Strömförsörjning",
        "type": "check"
      },
      {
        "key": "internet_access",
        "label": "Internetanslutning",
        "type": "combo"
      },
      {
        "key": "internet_access/fee",
        "label": "Internetåtkomst",
        "type": "combo"
      }
    ]
  },
  "tourism/camp_site": {
    "name": "Campingplats",
    "fields": [
      {
        "key": "operator",
        "label": "Operatör",
        "type": "text"
      },
      {
        "key": "access_simple",
        "label": "Tillåten åtkomst",
        "type": "combo"
      },
      {
        "key": "capacity/persons",
        "label": "Kapacitet (Personer)",
        "type": "number"
      },
      {
        "key": "tents",
        "label": "Tält",
        "type": "check"
      },
      {
        "key": "capacity/tents",
        "label": "Kapacitet (Tält)",
        "type": "number"
      },
      {
        "key": "caravans",
        "label": "Husvagn / Husbil",
        "type": "check"
      },
      {
        "key": "capacity/caravans",
        "label": "Kapacitet (Husvagn / Husbil)",
        "type": "number"
      },
      {
        "key": "static_caravans",
        "label": "Villavagnar",
        "type": "check"
      },
      {
        "key": "fee",
        "label": "Avgift",
        "type": "check"
      },
      {
        "key": "payment_multi_fee",
        "label": null,
        "type": "multiCombo"
      },
      {
        "key": "charge_fee",
        "label": "Avgiftsbelopp",
        "type": "text"
      }
    ]
  },
  "tourism/camp_pitch": {
    "name": "Tältplats/husvagnsplats",
    "fields": [
      {
        "key": "ref",
        "label": "Referenskod",
        "type": "text"
      }
    ]
  },
  "tourism/attraction": {
    "name": "Turistattraktion",
    "fields": [
      {
        "key": "operator",
        "label": "Operatör",
        "type": "text"
      }
    ]
  },
  "tourism/aquarium": {
    "name": "Akvarium",
    "fields": [
      {
        "key": "operator",
        "label": "Operatör",
        "type": "text"
      },
      {
        "key": "building_area_yes",
        "label": null,
        "type": "combo"
      }
    ]
  },
  "tourism/apartment": {
    "name": "Turistlägenhet",
    "fields": [
      {
        "key": "operator",
        "label": "Operatör",
        "type": "text"
      },
      {
        "key": "email",
        "label": "E-post",
        "type": "email"
      },
      {
        "key": "building_area_yes",
        "label": null,
        "type": "combo"
      },
      {
        "key": "rooms",
        "label": "Rum",
        "type": "number"
      },
      {
        "key": "internet_access",
        "label": "Internetanslutning",
        "type": "combo"
      },
      {
        "key": "internet_access/fee",
        "label": "Internetåtkomst",
        "type": "combo"
      }
    ]
  },
  "tourism/alpine_hut": {
    "name": "Fjällstation",
    "fields": [
      {
        "key": "operator",
        "label": "Operatör",
        "type": "text"
      },
      {
        "key": "building_area_yes",
        "label": null,
        "type": "combo"
      },
      {
        "key": "internet_access",
        "label": "Internetanslutning",
        "type": "combo"
      },
      {
        "key": "internet_access/fee",
        "label": "Internetåtkomst",
        "type": "combo"
      },
      {
        "key": "fee",
        "label": "Avgift",
        "type": "check"
      },
      {
        "key": "payment_multi_fee",
        "label": null,
        "type": "multiCombo"
      },
      {
        "key": "charge_fee",
        "label": "Avgiftsbelopp",
        "type": "text"
      }
    ]
  },
  "shop/wine": {
    "name": "Vinaffär",
    "fields": []
  },
  "shop/window_blind": {
    "name": "Persienner",
    "fields": []
  },
  "shop/wigs": {
    "name": "Affär för peruker",
    "fields": []
  },
  "shop/wholesale": {
    "name": "Grosistaffär",
    "fields": [
      {
        "key": "{shop}",
        "label": null,
        "type": ""
      },
      {
        "key": "wholesale",
        "label": "Grosist",
        "type": "typeCombo"
      }
    ]
  },
  "shop/weapons": {
    "name": "Vapenaffär",
    "fields": []
  },
  "shop/water_sports": {
    "name": "Vattensport/simning",
    "fields": []
  },
  "shop/water": {
    "name": "Affär för dricksvatten",
    "fields": []
  },
  "shop/watches": {
    "name": "Klockaffär",
    "fields": []
  },
  "shop/video_games": {
    "name": "TV-spel",
    "fields": []
  },
  "shop/video": {
    "name": "Videobutik",
    "fields": []
  },
  "shop/variety_store": {
    "name": "Fyndbutik",
    "fields": []
  },
  "shop/vacuum_cleaner": {
    "name": "Dammsugarbutik",
    "fields": []
  },
  "shop/tyres": {
    "name": "Däckfirma",
    "fields": []
  },
  "shop/trophy": {
    "name": "Affär för troféer",
    "fields": []
  },
  "shop/travel_agency": {
    "name": "Resebyrå",
    "fields": []
  },
  "shop/trade": {
    "name": "Proffshandel",
    "fields": [
      {
        "key": "trade",
        "label": "Typ",
        "type": "typeCombo"
      },
      {
        "key": "{shop}",
        "label": null,
        "type": ""
      }
    ]
  },
  "shop/toys": {
    "name": "Leksaksaffär",
    "fields": []
  },
  "shop/tool_hire": {
    "name": "Verktygsuthyrning",
    "fields": []
  },
  "shop/tobacco": {
    "name": "Tobaksbutik",
    "fields": []
  },
  "shop/tiles": {
    "name": "Kakelbutik",
    "fields": []
  },
  "shop/ticket": {
    "name": "Biljettförsäljning",
    "fields": []
  },
  "shop/telecommunication": {
    "name": "Telekombutik",
    "fields": []
  },
  "shop/tea": {
    "name": "Te-butik",
    "fields": []
  },
  "shop/tattoo": {
    "name": "Tatueringsstudio",
    "fields": []
  },
  "shop/tailor": {
    "name": "Skräddare",
    "fields": []
  },
  "shop/swimming_pool": {
    "name": "Butik för pooltillbehör",
    "fields": []
  },
  "shop/supermarket": {
    "name": "Mataffär",
    "fields": []
  },
  "shop/storage_rental": {
    "name": "Hyrlager",
    "fields": []
  },
  "shop/stationery": {
    "name": "Pappershandel",
    "fields": []
  },
  "shop/sports": {
    "name": "Sportaffär",
    "fields": [
      {
        "key": "operator",
        "label": "Operatör",
        "type": "text"
      },
      {
        "key": "sport",
        "label": "Sporter",
        "type": "semiCombo"
      },
      {
        "key": "{shop}",
        "label": null,
        "type": ""
      }
    ]
  },
  "shop/spices": {
    "name": "Affär för kryddor",
    "fields": []
  },
  "shop/shoes": {
    "name": "Skoaffär",
    "fields": [
      {
        "key": "shoes",
        "label": "Skor",
        "type": "semiCombo"
      },
      {
        "key": "{shop}",
        "label": null,
        "type": ""
      }
    ]
  },
  "shop/shoe_repair": {
    "name": "Skomakare",
    "fields": []
  },
  "shop/sewing": {
    "name": "Sybutik",
    "fields": []
  },
  "shop/second_hand": {
    "name": "Second hand",
    "fields": [
      {
        "key": "{shop}",
        "label": null,
        "type": ""
      },
      {
        "key": "second_hand",
        "label": "Second hand",
        "type": "combo"
      }
    ]
  },
  "shop/seafood": {
    "name": "Fiskaffär",
    "fields": []
  },
  "shop/scuba_diving": {
    "name": "Dykarbutik",
    "fields": [
      {
        "key": "{shop}",
        "label": null,
        "type": ""
      },
      {
        "key": "scuba_diving",
        "label": "Tjänster",
        "type": "multiCombo"
      }
    ]
  },
  "shop/repair": {
    "name": "Reparatör",
    "fields": []
  },
  "shop/rental": {
    "name": "Hyrbutik",
    "fields": []
  },
  "shop/religion": {
    "name": "Religiös butik",
    "fields": [
      {
        "key": "{shop}",
        "label": null,
        "type": ""
      },
      {
        "key": "religion",
        "label": "Religion",
        "type": "combo"
      },
      {
        "key": "denomination",
        "label": "Samfund",
        "type": "combo"
      }
    ]
  },
  "shop/radiotechnics": {
    "name": "Radio/Elektronikbutik",
    "fields": []
  },
  "shop/pyrotechnics": {
    "name": "Fyrverkerier",
    "fields": []
  },
  "shop/psychic": {
    "name": "Medium / Psykisk",
    "fields": []
  },
  "shop/printer_ink": {
    "name": "Butik för skrivarbläck",
    "fields": []
  },
  "shop/pottery": {
    "name": "Keramikaffär",
    "fields": []
  },
  "shop/photo": {
    "name": "Fotoaffär",
    "fields": []
  },
  "shop/pet": {
    "name": "Djurbutik",
    "fields": []
  },
  "shop/perfumery": {
    "name": "Parfymbutik",
    "fields": []
  },
  "shop/pawnbroker": {
    "name": "Pantbank",
    "fields": []
  },
  "shop/pastry": {
    "name": "Konditori",
    "fields": []
  },
  "shop/party": {
    "name": "Partybutik",
    "fields": []
  },
  "shop/paint": {
    "name": "Färgbutik",
    "fields": []
  },
  "shop/outpost": {
    "name": "Utlämning av online-beställningar",
    "fields": []
  },
  "shop/outdoor": {
    "name": "Friluftsaffär",
    "fields": [
      {
        "key": "{shop}",
        "label": null,
        "type": ""
      }
    ]
  },
  "shop/optician": {
    "name": "Optiker",
    "fields": []
  },
  "shop/nuts": {
    "name": "Nötbutik",
    "fields": []
  },
  "shop/nutrition_supplements": {
    "name": "Hälsokost",
    "fields": []
  },
  "shop/newsagent": {
    "name": "Tidningsaffär",
    "fields": []
  },
  "shop/musical_instrument": {
    "name": "Musikinstrument",
    "fields": []
  },
  "shop/music": {
    "name": "Musikaffär",
    "fields": []
  },
  "shop/motorcycle_repair": {
    "name": "Motorcykelverkstad",
    "fields": [
      {
        "key": "{shop}",
        "label": null,
        "type": ""
      },
      {
        "key": "service/vehicle",
        "label": "Tjänster",
        "type": "multiCombo"
      }
    ]
  },
  "shop/motorcycle": {
    "name": "Återförsäljare av motorcyklar",
    "fields": [
      {
        "key": "brand",
        "label": "Varumärke",
        "type": "text"
      },
      {
        "key": "{shop}",
        "label": null,
        "type": ""
      }
    ]
  },
  "shop/money_lender": {
    "name": "Långivare",
    "fields": [
      {
        "key": "{shop}",
        "label": null,
        "type": ""
      },
      {
        "key": "currency_multi",
        "label": "Valutor",
        "type": "multiCombo"
      }
    ]
  },
  "shop/model": {
    "name": "Affär för byggmodeller",
    "fields": []
  },
  "shop/mobile_phone": {
    "name": "Mobiltelefoner",
    "fields": []
  },
  "shop/military_surplus": {
    "name": "Affär med militäröverskott",
    "fields": []
  },
  "shop/medical_supply": {
    "name": "Medicinsk utrustning",
    "fields": []
  },
  "shop/massage": {
    "name": "Massage",
    "fields": []
  },
  "shop/mall": {
    "name": "Köpcenter",
    "fields": []
  },
  "shop/lottery": {
    "name": "Lotteri",
    "fields": []
  },
  "shop/locksmith": {
    "name": "Låssmed",
    "fields": []
  },
  "shop/lighting": {
    "name": "Belysningsbutik",
    "fields": []
  },
  "shop/leather": {
    "name": "Läderaffär",
    "fields": []
  },
  "shop/laundry": {
    "name": "Tvättinrättning",
    "fields": [
      {
        "key": "{shop}",
        "label": null,
        "type": ""
      },
      {
        "key": "self_service",
        "label": "Självbetjäning",
        "type": "check"
      }
    ]
  },
  "shop/kitchen": {
    "name": "Köksinredning",
    "fields": []
  },
  "shop/kiosk": {
    "name": "Kiosk",
    "fields": []
  },
  "shop/jewelry": {
    "name": "Juvelerare",
    "fields": []
  },
  "shop/interior_decoration": {
    "name": "Inredningsaffär",
    "fields": []
  },
  "shop/hunting": {
    "name": "Jaktbutik",
    "fields": []
  },
  "shop/houseware": {
    "name": "Husgeråd",
    "fields": []
  },
  "shop/household_linen": {
    "name": "Affär för hushållstextilier",
    "fields": []
  },
  "shop/hifi": {
    "name": "HiFi-butik",
    "fields": []
  },
  "shop/herbalist": {
    "name": "Medicinalväxter",
    "fields": []
  },
  "shop/hearing_aids": {
    "name": "Hörapparater",
    "fields": []
  },
  "shop/health_food": {
    "name": "Hälsokostbutik",
    "fields": []
  },
  "shop/hardware": {
    "name": "Järnaffär",
    "fields": []
  },
  "shop/hairdresser_supply": {
    "name": "Affär för hårprodukter",
    "fields": []
  },
  "shop/hairdresser": {
    "name": "Hårfrisör",
    "fields": [
      {
        "key": "operator",
        "label": "Operatör",
        "type": "text"
      },
      {
        "key": "building_area_yes",
        "label": null,
        "type": "combo"
      },
      {
        "key": "payment_multi",
        "label": "Betalningssätt",
        "type": "multiCombo"
      },
      {
        "key": "gender",
        "label": "Kön",
        "type": "radio"
      }
    ]
  },
  "shop/greengrocer": {
    "name": "Grönsakshandlare",
    "fields": [
      {
        "key": "{shop}",
        "label": null,
        "type": ""
      },
      {
        "key": "organic",
        "label": "Organiska produkter",
        "type": "combo"
      }
    ]
  },
  "shop/gift": {
    "name": "Presentbutik",
    "fields": []
  },
  "shop/general": {
    "name": "Generell affär",
    "fields": []
  },
  "shop/gas": {
    "name": "Gasbutik",
    "fields": []
  },
  "shop/garden_centre": {
    "name": "Trädgårdscenter",
    "fields": []
  },
  "shop/games": {
    "name": "Affär för brädspel",
    "fields": []
  },
  "shop/furniture": {
    "name": "Möbelaffär",
    "fields": []
  },
  "shop/funeral_directors": {
    "name": "Begravningsbyrå",
    "fields": [
      {
        "key": "{shop}",
        "label": null,
        "type": ""
      },
      {
        "key": "religion",
        "label": "Religion",
        "type": "combo"
      },
      {
        "key": "denomination",
        "label": "Samfund",
        "type": "combo"
      }
    ]
  },
  "shop/fuel": {
    "name": "Bränsleaffär",
    "fields": [
      {
        "key": "{shop}",
        "label": null,
        "type": ""
      },
      {
        "key": "fuel/fuel_multi",
        "label": "Bränsletyp",
        "type": "multiCombo"
      }
    ]
  },
  "shop/frozen_food": {
    "name": "Affär för fryst mat",
    "fields": []
  },
  "shop/frame": {
    "name": "Ramaffär",
    "fields": []
  },
  "shop/florist": {
    "name": "Florist",
    "fields": []
  },
  "shop/flooring": {
    "name": "Affär för golv",
    "fields": []
  },
  "shop/fishing": {
    "name": "Fiskeaffär",
    "fields": []
  },
  "shop/fireplace": {
    "name": "Kaminbutik",
    "fields": []
  },
  "shop/fashion_accessories": {
    "name": "Affär för modeaccessoarer",
    "fields": [
      {
        "key": "clothes",
        "label": "Kläder",
        "type": "semiCombo"
      },
      {
        "key": "{shop}",
        "label": null,
        "type": ""
      }
    ]
  },
  "shop/farm": {
    "name": "Gårdsbutik",
    "fields": [
      {
        "key": "{shop}",
        "label": null,
        "type": ""
      },
      {
        "key": "organic",
        "label": "Organiska produkter",
        "type": "combo"
      }
    ]
  },
  "shop/fabric": {
    "name": "Tygaffär",
    "fields": []
  },
  "shop/erotic": {
    "name": "Sexshop",
    "fields": [
      {
        "key": "{shop}",
        "label": null,
        "type": ""
      },
      {
        "key": "min_age",
        "label": "Lägsta ålder",
        "type": "number"
      }
    ]
  },
  "shop/electronics": {
    "name": "Elektronikbutik",
    "fields": []
  },
  "shop/electrical": {
    "name": "Affär med elutrustning",
    "fields": []
  },
  "shop/e-cigarette": {
    "name": "Affär för elektroniska cigaretter",
    "fields": []
  },
  "shop/dry_cleaning": {
    "name": "Kemtvätt",
    "fields": []
  },
  "shop/doors": {
    "name": "Affär med dörrar",
    "fields": []
  },
  "shop/doityourself": {
    "name": "Byggmarknad",
    "fields": []
  },
  "shop/department_store": {
    "name": "Varuhus",
    "fields": []
  },
  "shop/deli": {
    "name": "Delikatessaffär",
    "fields": []
  },
  "shop/dairy": {
    "name": "Mejeriaffär",
    "fields": []
  },
  "shop/curtain": {
    "name": "Gardinaffär",
    "fields": []
  },
  "shop/craft": {
    "name": "Konst- & hantverksbutik",
    "fields": []
  },
  "shop/country_store": {
    "name": "Butik med landsbygdsförnödenheter",
    "fields": []
  },
  "shop/cosmetics": {
    "name": "Sminkaffär",
    "fields": []
  },
  "shop/copyshop": {
    "name": "Tryckeri",
    "fields": []
  },
  "shop/convenience": {
    "name": "Närbutik",
    "fields": []
  },
  "shop/confectionery": {
    "name": "Godisaffär",
    "fields": []
  },
  "shop/computer": {
    "name": "Datorbutik",
    "fields": []
  },
  "shop/collector": {
    "name": "Affär med samlarobjekt",
    "fields": [
      {
        "key": "collector",
        "label": "Föremål",
        "type": "semiCombo"
      },
      {
        "key": "{shop}",
        "label": null,
        "type": ""
      }
    ]
  },
  "shop/coffee": {
    "name": "Kaffeaffär",
    "fields": []
  },
  "shop/clothes": {
    "name": "Klädaffär",
    "fields": [
      {
        "key": "clothes",
        "label": "Kläder",
        "type": "semiCombo"
      },
      {
        "key": "{shop}",
        "label": null,
        "type": ""
      }
    ]
  },
  "shop/chocolate": {
    "name": "Chokladaffär",
    "fields": []
  },
  "shop/chemist": {
    "name": "Kemiaffär (hygien,  kosmetika & städ)",
    "fields": []
  },
  "shop/cheese": {
    "name": "Ostaffär",
    "fields": []
  },
  "shop/charity": {
    "name": "Second hand-butik",
    "fields": [
      {
        "key": "{shop}",
        "label": null,
        "type": ""
      },
      {
        "key": "second_hand",
        "label": "Second hand",
        "type": "combo"
      }
    ]
  },
  "shop/catalogue": {
    "name": "Katalogaffär",
    "fields": []
  },
  "shop/carpet": {
    "name": "Mattaffär",
    "fields": []
  },
  "shop/caravan": {
    "name": "Husvagnsförsäljare",
    "fields": [
      {
        "key": "brand",
        "label": "Varumärke",
        "type": "text"
      },
      {
        "key": "{shop}",
        "label": null,
        "type": ""
      },
      {
        "key": "second_hand",
        "label": "Second hand",
        "type": "combo"
      },
      {
        "key": "service/vehicle",
        "label": "Tjänster",
        "type": "multiCombo"
      }
    ]
  },
  "shop/car_repair": {
    "name": "Bilverkstad",
    "fields": [
      {
        "key": "{shop}",
        "label": null,
        "type": ""
      },
      {
        "key": "service/vehicle",
        "label": "Tjänster",
        "type": "multiCombo"
      }
    ]
  },
  "shop/car_parts": {
    "name": "Biltillbehör",
    "fields": []
  },
  "shop/car": {
    "name": "Bilhandlare",
    "fields": [
      {
        "key": "brand",
        "label": "Varumärke",
        "type": "text"
      },
      {
        "key": "{shop}",
        "label": null,
        "type": ""
      },
      {
        "key": "second_hand",
        "label": "Second hand",
        "type": "combo"
      },
      {
        "key": "service/vehicle",
        "label": "Tjänster",
        "type": "multiCombo"
      }
    ]
  },
  "shop/cannabis": {
    "name": "Cannabisaffär",
    "fields": []
  },
  "shop/candles": {
    "name": "Ljusaffär",
    "fields": []
  },
  "shop/camera": {
    "name": "Affär för kameratillbehör",
    "fields": []
  },
  "shop/butcher": {
    "name": "Slaktare",
    "fields": []
  },
  "shop/brewing_supplies": {
    "name": "Affär för hembryggningstillbehör",
    "fields": []
  },
  "shop/books": {
    "name": "Bokhandel",
    "fields": [
      {
        "key": "{shop}",
        "label": null,
        "type": ""
      },
      {
        "key": "internet_access",
        "label": "Internetanslutning",
        "type": "combo"
      }
    ]
  },
  "shop/bookmaker": {
    "name": "Vadslagning",
    "fields": []
  },
  "shop/boat": {
    "name": "Båtaffär",
    "fields": []
  },
  "shop/bicycle": {
    "name": "Cykelaffär",
    "fields": [
      {
        "key": "{shop}",
        "label": null,
        "type": ""
      },
      {
        "key": "service/bicycle",
        "label": "Cykelservice",
        "type": "multiCombo"
      }
    ]
  },
  "shop/beverages": {
    "name": "Dryckaffär",
    "fields": []
  },
  "shop/bed": {
    "name": "Sängaffär",
    "fields": []
  },
  "shop/beauty": {
    "name": "Skönhetssalong",
    "fields": [
      {
        "key": "{shop}",
        "label": null,
        "type": ""
      },
      {
        "key": "beauty",
        "label": "Tjänster",
        "type": "semiCombo"
      }
    ]
  },
  "shop/bathroom_furnishing": {
    "name": "Badrumsinredning",
    "fields": []
  },
  "shop/bakery": {
    "name": "Bageri",
    "fields": []
  },
  "shop/bag": {
    "name": "Väskaffär",
    "fields": []
  },
  "shop/baby_goods": {
    "name": "Babyprodukter",
    "fields": []
  },
  "shop/art": {
    "name": "Konstaffär",
    "fields": []
  },
  "shop/appliance": {
    "name": "Vitvaror",
    "fields": []
  },
  "shop/antiques": {
    "name": "Antikaffär",
    "fields": []
  },
  "shop/anime": {
    "name": "Anime/Manga-affär",
    "fields": []
  },
  "shop/alcohol": {
    "name": "Vin-och-spritaffär",
    "fields": [
      {
        "key": "{shop}",
        "label": null,
        "type": ""
      },
      {
        "key": "drive_through",
        "label": "Genomkörning (Drive-through)",
        "type": "check"
      }
    ]
  },
  "shop/agrarian": {
    "name": "Jordbruksaffär",
    "fields": [
      {
        "key": "{shop}",
        "label": null,
        "type": ""
      },
      {
        "key": "agrarian",
        "label": "Produkter",
        "type": "semiCombo"
      }
    ]
  },
  "shop/yes": {
    "name": "Affär (ospecificerad typ)",
    "fields": [
      {
        "key": "shop",
        "label": "Typ",
        "type": "typeCombo"
      },
      {
        "key": "{shop}",
        "label": null,
        "type": ""
      }
    ]
  },
  "shop/hobby": {
    "name": "Hobbyaffär",
    "fields": []
  },
  "shop/fashion": {
    "name": "Modebutik",
    "fields": [
      {
        "key": "clothes",
        "label": "Kläder",
        "type": "semiCombo"
      },
      {
        "key": "{shop}",
        "label": null,
        "type": ""
      }
    ]
  },
  "shop/boutique": {
    "name": "Boutique (Dyra kläder och accessoarer)",
    "fields": [
      {
        "key": "clothes",
        "label": "Kläder",
        "type": "semiCombo"
      },
      {
        "key": "{shop}",
        "label": null,
        "type": ""
      }
    ]
  },
  "office/water_utility": {
    "name": "Vattenleverantör",
    "fields": [
      {
        "key": "{office}",
        "label": null,
        "type": ""
      },
      {
        "key": "operator",
        "label": "Operatör",
        "type": "text"
      }
    ]
  },
  "office/union": {
    "name": "Fackföreningskontor",
    "fields": []
  },
  "office/therapist": {
    "name": "Terapeut",
    "fields": [
      {
        "key": "healthcare_therapist",
        "label": null,
        "type": "typeCombo"
      },
      {
        "key": "healthcare/speciality",
        "label": "Specialiteter",
        "type": "semiCombo"
      },
      {
        "key": "{office}",
        "label": null,
        "type": ""
      }
    ]
  },
  "office/telecommunication": {
    "name": "Telekom",
    "fields": []
  },
  "office/tax_advisor": {
    "name": "Skatterådgivning",
    "fields": []
  },
  "office/surveyor": {
    "name": "Undersökning/inspektion",
    "fields": []
  },
  "office/security": {
    "name": "Bevakningskontor",
    "fields": []
  },
  "office/research": {
    "name": "Forskning och utveckling",
    "fields": []
  },
  "office/religion": {
    "name": "Religiöst kontor",
    "fields": [
      {
        "key": "{office}",
        "label": null,
        "type": ""
      },
      {
        "key": "religion",
        "label": "Religion",
        "type": "combo"
      },
      {
        "key": "denomination",
        "label": "Samfund",
        "type": "combo"
      }
    ]
  },
  "office/quango": {
    "name": "Kvasiautonom icke-statlig organisation",
    "fields": []
  },
  "office/property_management": {
    "name": "Fastighetsförvaltning / Uthyrningskontor",
    "fields": []
  },
  "office/private_investigator": {
    "name": "Privatdetektiv",
    "fields": []
  },
  "office/political_party": {
    "name": "Partikontor",
    "fields": []
  },
  "office/notary": {
    "name": "Notarie",
    "fields": []
  },
  "office/ngo": {
    "name": "Icke-statlig organisation",
    "fields": []
  },
  "office/newspaper": {
    "name": "Tidningsredaktion",
    "fields": []
  },
  "office/moving_company": {
    "name": "Flyttfirma",
    "fields": []
  },
  "office/lawyer": {
    "name": "Advokatkontor",
    "fields": []
  },
  "office/it": {
    "name": "IT-kontor",
    "fields": []
  },
  "office/insurance": {
    "name": "Försäkringskontor",
    "fields": []
  },
  "office/guide": {
    "name": "Guidekontor",
    "fields": []
  },
  "office/graphic_design": {
    "name": "Kontor för grafiskt designer",
    "fields": []
  },
  "office/government": {
    "name": "Myndighet",
    "fields": [
      {
        "key": "government",
        "label": "Typ",
        "type": "typeCombo"
      },
      {
        "key": "{office}",
        "label": null,
        "type": ""
      }
    ]
  },
  "office/foundation": {
    "name": "Stiftelse",
    "fields": []
  },
  "office/forestry": {
    "name": "Skogsbolag",
    "fields": []
  },
  "office/financial_advisor": {
    "name": "Finansiell rådgivare",
    "fields": []
  },
  "office/financial": {
    "name": "Bankkontor",
    "fields": []
  },
  "office/estate_agent": {
    "name": "Mäklare/bostadsförmedling",
    "fields": []
  },
  "office/engineer": {
    "name": "Ingenjörskontoret",
    "fields": []
  },
  "office/energy_supplier": {
    "name": "Energibolag",
    "fields": []
  },
  "office/employment_agency": {
    "name": "Arbetsförmedling",
    "fields": []
  },
  "office/educational_institution": {
    "name": "Utbildningskontor",
    "fields": []
  },
  "office/diplomatic": {
    "name": "Diplomatkontor",
    "fields": [
      {
        "key": "diplomatic",
        "label": "Typ",
        "type": "combo"
      },
      {
        "key": "country",
        "label": "Land",
        "type": "combo"
      },
      {
        "key": "target",
        "label": "Riktas mot",
        "type": "combo"
      },
      {
        "key": "diplomatic/services",
        "label": "Tjänster",
        "type": "multiCombo"
      },
      {
        "key": "{office}",
        "label": null,
        "type": ""
      }
    ]
  },
  "office/consulting": {
    "name": "Konsultkontor",
    "fields": [
      {
        "key": "consulting",
        "label": "Expertis",
        "type": "semiCombo"
      },
      {
        "key": "{office}",
        "label": null,
        "type": ""
      }
    ]
  },
  "office/charity": {
    "name": "Välgörenhetsorganisation",
    "fields": []
  },
  "office/bail_bond_agent-US-PH": {
    "name": "Bail Bond-agent",
    "fields": []
  },
  "office/association": {
    "name": "Frivilligorganisation",
    "fields": []
  },
  "office/architect": {
    "name": "Arkitektbyrå",
    "fields": []
  },
  "office/advertising_agency": {
    "name": "Reklambyrå",
    "fields": []
  },
  "office/adoption_agency": {
    "name": "Adoptionsbyrå",
    "fields": []
  },
  "office/accountant": {
    "name": "Bokhållare",
    "fields": []
  },
  "office/yes": {
    "name": "Kontor (ospecificerad typ)",
    "fields": [
      {
        "key": "office",
        "label": "Typ",
        "type": "typeCombo"
      },
      {
        "key": "{office}",
        "label": null,
        "type": ""
      }
    ]
  },
  "office/travel_agent": {
    "name": "Resebyrå",
    "fields": []
  },
  "office/physician": {
    "name": "Läkare",
    "fields": []
  },
  "office/administrative": {
    "name": "Lokal myndighet",
    "fields": []
  },
  "leisure/water_park": {
    "name": "Äventyrsbad / Vattenpark",
    "fields": [
      {
        "key": "{tourism/theme_park}",
        "label": null,
        "type": ""
      },
      {
        "key": "sport",
        "label": "Sporter",
        "type": "semiCombo"
      }
    ]
  },
  "leisure/trampoline_park": {
    "name": "Trampolinpark",
    "fields": [
      {
        "key": "building_area_yes",
        "label": null,
        "type": "combo"
      }
    ]
  },
  "leisure/swimming_area": {
    "name": "Naturbadområde",
    "fields": [
      {
        "key": "access_simple",
        "label": "Tillåten åtkomst",
        "type": "combo"
      },
      {
        "key": "supervised",
        "label": "Övervakad",
        "type": "check"
      },
      {
        "key": "fee",
        "label": "Avgift",
        "type": "check"
      },
      {
        "key": "payment_multi_fee",
        "label": null,
        "type": "multiCombo"
      },
      {
        "key": "charge_fee",
        "label": "Avgiftsbelopp",
        "type": "text"
      },
      {
        "key": "lit",
        "label": "Belysning",
        "type": "check"
      }
    ]
  },
  "leisure/stadium": {
    "name": "Stadium",
    "fields": [
      {
        "key": "operator",
        "label": "Operatör",
        "type": "text"
      },
      {
        "key": "sport",
        "label": "Sporter",
        "type": "semiCombo"
      }
    ]
  },
  "leisure/sports_hall": {
    "name": "Sporthall",
    "fields": [
      {
        "key": "operator",
        "label": "Operatör",
        "type": "text"
      },
      {
        "key": "sport",
        "label": "Sporter",
        "type": "semiCombo"
      },
      {
        "key": "building_area_yes",
        "label": null,
        "type": "combo"
      },
      {
        "key": "access_simple",
        "label": "Tillåten åtkomst",
        "type": "combo"
      }
    ]
  },
  "leisure/sports_centre": {
    "name": "Sportcenter / -anläggning",
    "fields": [
      {
        "key": "operator",
        "label": "Operatör",
        "type": "text"
      },
      {
        "key": "operator/type",
        "label": "Typ av operatör",
        "type": "combo"
      },
      {
        "key": "sport",
        "label": "Sporter",
        "type": "semiCombo"
      },
      {
        "key": "fee",
        "label": "Avgift",
        "type": "check"
      },
      {
        "key": "payment_multi_fee",
        "label": null,
        "type": "multiCombo"
      },
      {
        "key": "charge_fee",
        "label": "Avgiftsbelopp",
        "type": "text"
      }
    ]
  },
  "leisure/slipway_drivable": {
    "name": "Sjösättningsramp (körbar)",
    "fields": [
      {
        "key": "{leisure/slipway}",
        "label": null,
        "type": ""
      },
      {
        "key": "lanes",
        "label": "Filer",
        "type": "number"
      }
    ]
  },
  "leisure/sauna": {
    "name": "Bastu",
    "fields": [
      {
        "key": "operator",
        "label": "Operatör",
        "type": "text"
      },
      {
        "key": "access_simple",
        "label": "Tillåten åtkomst",
        "type": "combo"
      },
      {
        "key": "fee",
        "label": "Avgift",
        "type": "check"
      },
      {
        "key": "payment_multi_fee",
        "label": null,
        "type": "multiCombo"
      },
      {
        "key": "charge_fee",
        "label": "Avgiftsbelopp",
        "type": "text"
      }
    ]
  },
  "leisure/resort": {
    "name": "Resort",
    "fields": [
      {
        "key": "operator",
        "label": "Operatör",
        "type": "text"
      },
      {
        "key": "resort",
        "label": "Typ",
        "type": "combo"
      }
    ]
  },
  "leisure/outdoor_seating": {
    "name": "Uteservering",
    "fields": [
      {
        "key": "operator",
        "label": "Operatör",
        "type": "text"
      },
      {
        "key": "capacity",
        "label": "Kapacitet",
        "type": "number"
      },
      {
        "key": "lit",
        "label": "Belysning",
        "type": "check"
      },
      {
        "key": "seasonal",
        "label": "Säsongsöppen",
        "type": "check"
      },
      {
        "key": "heating",
        "label": "Uppvärmning",
        "type": "check"
      }
    ]
  },
  "leisure/miniature_golf": {
    "name": "Minigolf",
    "fields": [
      {
        "key": "operator",
        "label": "Operatör",
        "type": "text"
      },
      {
        "key": "fee",
        "label": "Avgift",
        "type": "check"
      },
      {
        "key": "payment_multi_fee",
        "label": null,
        "type": "multiCombo"
      },
      {
        "key": "charge_fee",
        "label": "Avgiftsbelopp",
        "type": "text"
      }
    ]
  },
  "leisure/marina": {
    "name": "Marina",
    "fields": [
      {
        "key": "operator",
        "label": "Operatör",
        "type": "text"
      },
      {
        "key": "capacity",
        "label": "Kapacitet",
        "type": "number"
      },
      {
        "key": "fee",
        "label": "Avgift",
        "type": "check"
      },
      {
        "key": "payment_multi_fee",
        "label": null,
        "type": "multiCombo"
      },
      {
        "key": "charge_fee",
        "label": "Avgiftsbelopp",
        "type": "text"
      },
      {
        "key": "sanitary_dump_station",
        "label": "Latrintömning ",
        "type": "check"
      },
      {
        "key": "power_supply",
        "label": "Strömförsörjning",
        "type": "check"
      }
    ]
  },
  "leisure/indoor_play": {
    "name": "Inomhuslekland",
    "fields": [
      {
        "key": "building_area_yes",
        "label": null,
        "type": "combo"
      }
    ]
  },
  "leisure/ice_rink": {
    "name": "Skridskobana",
    "fields": [
      {
        "key": "seasonal",
        "label": "Säsongsöppen",
        "type": "check"
      },
      {
        "key": "sport_ice",
        "label": "Sporter",
        "type": "semiCombo"
      },
      {
        "key": "operator",
        "label": "Operatör",
        "type": "text"
      },
      {
        "key": "building",
        "label": "Byggnad",
        "type": "combo"
      }
    ]
  },
  "leisure/horse_riding": {
    "name": "Ridskola",
    "fields": [
      {
        "key": "access_simple",
        "label": "Tillåten åtkomst",
        "type": "combo"
      },
      {
        "key": "operator",
        "label": "Operatör",
        "type": "text"
      }
    ]
  },
  "leisure/hackerspace": {
    "name": "Hackerspace",
    "fields": [
      {
        "key": "building_area_yes",
        "label": null,
        "type": "combo"
      },
      {
        "key": "fee",
        "label": "Avgift",
        "type": "check"
      },
      {
        "key": "payment_multi_fee",
        "label": null,
        "type": "multiCombo"
      },
      {
        "key": "charge_fee",
        "label": "Avgiftsbelopp",
        "type": "text"
      },
      {
        "key": "internet_access",
        "label": "Internetanslutning",
        "type": "combo"
      },
      {
        "key": "internet_access/fee",
        "label": "Internetåtkomst",
        "type": "combo"
      },
      {
        "key": "internet_access/ssid",
        "label": "Wifi-nätverksnamn",
        "type": "text"
      }
    ]
  },
  "leisure/golf_course": {
    "name": "Golfbana",
    "fields": [
      {
        "key": "operator",
        "label": "Operatör",
        "type": "text"
      }
    ]
  },
  "leisure/fitness_centre": {
    "name": "Gym / Fitnesscenter",
    "fields": [
      {
        "key": "sport",
        "label": "Sporter",
        "type": "semiCombo"
      },
      {
        "key": "building_area_yes",
        "label": null,
        "type": "combo"
      }
    ]
  },
  "leisure/fishing": {
    "name": "Fiskeplats",
    "fields": [
      {
        "key": "access_simple",
        "label": "Tillåten åtkomst",
        "type": "combo"
      },
      {
        "key": "fishing",
        "label": "Fiske",
        "type": "combo"
      }
    ]
  },
  "leisure/escape_game": {
    "name": "Escape Room",
    "fields": [
      {
        "key": "building_area_yes",
        "label": null,
        "type": "combo"
      },
      {
        "key": "fee",
        "label": "Avgift",
        "type": "check"
      },
      {
        "key": "payment_multi_fee",
        "label": null,
        "type": "multiCombo"
      },
      {
        "key": "charge_fee",
        "label": "Avgiftsbelopp",
        "type": "text"
      },
      {
        "key": "internet_access",
        "label": "Internetanslutning",
        "type": "combo"
      },
      {
        "key": "internet_access/fee",
        "label": "Internetåtkomst",
        "type": "combo"
      },
      {
        "key": "internet_access/ssid",
        "label": "Wifi-nätverksnamn",
        "type": "text"
      }
    ]
  },
  "leisure/disc_golf_course": {
    "name": "Frisbeegolfbana",
    "fields": [
      {
        "key": "operator",
        "label": "Operatör",
        "type": "text"
      },
      {
        "key": "access_simple",
        "label": "Tillåten åtkomst",
        "type": "combo"
      },
      {
        "key": "fee",
        "label": "Avgift",
        "type": "check"
      },
      {
        "key": "payment_multi_fee",
        "label": null,
        "type": "multiCombo"
      },
      {
        "key": "charge_fee",
        "label": "Avgiftsbelopp",
        "type": "text"
      }
    ]
  },
  "leisure/dancing_school": {
    "name": "Dansskola",
    "fields": [
      {
        "key": "operator",
        "label": "Operatör",
        "type": "text"
      },
      {
        "key": "building_area_yes",
        "label": null,
        "type": "combo"
      },
      {
        "key": "dance/style",
        "label": "Dansstilar",
        "type": "semiCombo"
      }
    ]
  },
  "leisure/dance": {
    "name": "Dansbana",
    "fields": [
      {
        "key": "operator",
        "label": "Operatör",
        "type": "text"
      },
      {
        "key": "building_area_yes",
        "label": null,
        "type": "combo"
      },
      {
        "key": "dance/style",
        "label": "Dansstilar",
        "type": "semiCombo"
      },
      {
        "key": "dance/teaching",
        "label": "Erbjuder danslektioner",
        "type": "check"
      }
    ]
  },
  "leisure/bowling_alley": {
    "name": "Bowlinghall",
    "fields": [
      {
        "key": "operator",
        "label": "Operatör",
        "type": "text"
      },
      {
        "key": "building_area_yes",
        "label": null,
        "type": "combo"
      }
    ]
  },
  "leisure/bleachers": {
    "name": "Läktare",
    "fields": []
  },
  "leisure/beach_resort": {
    "name": "Strandresort",
    "fields": [
      {
        "key": "fee",
        "label": "Avgift",
        "type": "check"
      },
      {
        "key": "payment_multi_fee",
        "label": null,
        "type": "multiCombo"
      },
      {
        "key": "charge_fee",
        "label": "Avgiftsbelopp",
        "type": "text"
      }
    ]
  },
  "leisure/bandstand": {
    "name": "Musikestrad",
    "fields": [
      {
        "key": "building_area_yes",
        "label": null,
        "type": "combo"
      },
      {
        "key": "operator",
        "label": "Operatör",
        "type": "text"
      }
    ]
  },
  "leisure/amusement_arcade": {
    "name": "Arkadhall",
    "fields": [
      {
        "key": "operator",
        "label": "Operatör",
        "type": "text"
      },
      {
        "key": "building_area_yes",
        "label": null,
        "type": "combo"
      }
    ]
  },
  "leisure/adult_gaming_centre": {
    "name": "Center för vuxenspel",
    "fields": [
      {
        "key": "{amenity/casino}",
        "label": null,
        "type": ""
      }
    ]
  },
  "amenity/weighbridge": {
    "name": "Lastbilsvåg",
    "fields": [
      {
        "key": "ref",
        "label": "Referenskod",
        "type": "text"
      },
      {
        "key": "operator",
        "label": "Operatör",
        "type": "text"
      },
      {
        "key": "access_simple",
        "label": "Tillåten åtkomst",
        "type": "combo"
      },
      {
        "key": "maxweight",
        "label": "Maxvikt",
        "type": "combo"
      }
    ]
  },
  "amenity/veterinary": {
    "name": "Veterinär",
    "fields": [
      {
        "key": "operator",
        "label": "Operatör",
        "type": "text"
      },
      {
        "key": "building_area_yes",
        "label": null,
        "type": "combo"
      }
    ]
  },
  "amenity/vehicle_inspection": {
    "name": "Fordonsbesiktning",
    "fields": [
      {
        "key": "operator",
        "label": "Operatör",
        "type": "text"
      },
      {
        "key": "building_area_yes",
        "label": null,
        "type": "combo"
      }
    ]
  },
  "amenity/vacuum_cleaner": {
    "name": "Dammsugarstation",
    "fields": [
      {
        "key": "operator",
        "label": "Operatör",
        "type": "text"
      },
      {
        "key": "access_simple",
        "label": "Tillåten åtkomst",
        "type": "combo"
      },
      {
        "key": "fee",
        "label": "Avgift",
        "type": "check"
      },
      {
        "key": "payment_multi_fee",
        "label": null,
        "type": "multiCombo"
      },
      {
        "key": "charge_fee",
        "label": "Avgiftsbelopp",
        "type": "text"
      },
      {
        "key": "covered",
        "label": "Övertäckt",
        "type": "check"
      },
      {
        "key": "lit",
        "label": "Belysning",
        "type": "check"
      }
    ]
  },
  "amenity/university": {
    "name": "Universitetsområde",
    "fields": [
      {
        "key": "{amenity/college}",
        "label": null,
        "type": ""
      }
    ]
  },
  "amenity/trolley_bay": {
    "name": "Kundvagnsgarage",
    "fields": [
      {
        "key": "capacity",
        "label": "Kapacitet",
        "type": "number"
      },
      {
        "key": "deposit/trolley",
        "label": "Deposition",
        "type": "check"
      },
      {
        "key": "payment_multi_fee",
        "label": null,
        "type": "multiCombo"
      }
    ]
  },
  "amenity/toy_library": {
    "name": "Leksaksbibliotek",
    "fields": [
      {
        "key": "operator",
        "label": "Operatör",
        "type": "text"
      },
      {
        "key": "building_area_yes",
        "label": null,
        "type": "combo"
      }
    ]
  },
  "amenity/townhall": {
    "name": "Kommunhus",
    "fields": [
      {
        "key": "operator",
        "label": "Operatör",
        "type": "text"
      },
      {
        "key": "townhall/type",
        "label": "Typ",
        "type": "combo"
      },
      {
        "key": "building_area_yes",
        "label": null,
        "type": "combo"
      }
    ]
  },
  "amenity/ticket_validator": {
    "name": "Biljettkontrollmaskin",
    "fields": [
      {
        "key": "ref",
        "label": "Referenskod",
        "type": "text"
      },
      {
        "key": "operator",
        "label": "Operatör",
        "type": "text"
      }
    ]
  },
  "amenity/theatre": {
    "name": "Teater",
    "fields": [
      {
        "key": "operator",
        "label": "Operatör",
        "type": "text"
      },
      {
        "key": "building_area_yes",
        "label": null,
        "type": "combo"
      }
    ]
  },
  "amenity/taxi": {
    "name": "Taxihållplats",
    "fields": [
      {
        "key": "operator",
        "label": "Operatör",
        "type": "text"
      },
      {
        "key": "capacity",
        "label": "Kapacitet",
        "type": "number"
      }
    ]
  },
  "amenity/studio": {
    "name": "Studio",
    "fields": [
      {
        "key": "studio",
        "label": "Typ",
        "type": "combo"
      },
      {
        "key": "building_area_yes",
        "label": null,
        "type": "combo"
      }
    ]
  },
  "amenity/social_centre": {
    "name": "Medborgarhus",
    "fields": [
      {
        "key": "brand",
        "label": "Varumärke",
        "type": "text"
      },
      {
        "key": "operator",
        "label": "Operatör",
        "type": "text"
      },
      {
        "key": "operator/type",
        "label": "Typ av operatör",
        "type": "combo"
      },
      {
        "key": "building_area_yes",
        "label": null,
        "type": "combo"
      }
    ]
  },
  "amenity/smoking_area": {
    "name": "Rökområde",
    "fields": [
      {
        "key": "shelter",
        "label": "Väderskydd",
        "type": "check"
      },
      {
        "key": "bin",
        "label": "Soptunna",
        "type": "check"
      },
      {
        "key": "bench",
        "label": "Bänk",
        "type": "check"
      }
    ]
  },
  "amenity/school": {
    "name": "Skolområde",
    "fields": [
      {
        "key": "operator",
        "label": "Operatör",
        "type": "text"
      },
      {
        "key": "operator/type",
        "label": "Typ av operatör",
        "type": "combo"
      },
      {
        "key": "grades",
        "label": "Utbildningsnivåer",
        "type": "combo"
      },
      {
        "key": "religion",
        "label": "Religion",
        "type": "combo"
      },
      {
        "key": "denomination",
        "label": "Samfund",
        "type": "combo"
      }
    ]
  },
  "amenity/restaurant": {
    "name": "Restaurang",
    "fields": [
      {
        "key": "cuisine",
        "label": "Typer av mat",
        "type": "semiCombo"
      },
      {
        "key": "diet_multi",
        "label": "Typ av diet",
        "type": "multiCombo"
      },
      {
        "key": "building_area_yes",
        "label": null,
        "type": "combo"
      }
    ]
  },
  "amenity/research_institute": {
    "name": "Forskningsinstitutsområde",
    "fields": [
      {
        "key": "operator",
        "label": "Operatör",
        "type": "text"
      },
      {
        "key": "operator/type",
        "label": "Typ av operatör",
        "type": "combo"
      },
      {
        "key": "internet_access",
        "label": "Internetanslutning",
        "type": "combo"
      },
      {
        "key": "internet_access/fee",
        "label": "Internetåtkomst",
        "type": "combo"
      }
    ]
  },
  "amenity/refugee_site": {
    "name": "Flyktingläger",
    "fields": [
      {
        "key": "operator",
        "label": "Operatör",
        "type": "text"
      },
      {
        "key": "operator/type",
        "label": "Typ av operatör",
        "type": "combo"
      },
      {
        "key": "informal",
        "label": "Informell",
        "type": "check"
      },
      {
        "key": "start_date",
        "label": "Startdatum",
        "type": "date"
      },
      {
        "key": "capacity",
        "label": "Kapacitet",
        "type": "number"
      },
      {
        "key": "population",
        "label": "Folkmängd",
        "type": "number"
      },
      {
        "key": "population/date",
        "label": "Befolkningsdatum",
        "type": "text"
      },
      {
        "key": "source/population",
        "label": "Populationskälla",
        "type": "combo"
      }
    ]
  },
  "amenity/recycling_container": {
    "name": "Återvinningscontainer",
    "fields": [
      {
        "key": "operator",
        "label": "Operatör",
        "type": "text"
      },
      {
        "key": "recycling_accepts",
        "label": "Accepterar",
        "type": "multiCombo"
      },
      {
        "key": "collection_times",
        "label": "Hämtningstider",
        "type": "text"
      }
    ]
  },
  "amenity/recycling_centre": {
    "name": "Återvinningscentral",
    "fields": [
      {
        "key": "operator",
        "label": "Operatör",
        "type": "text"
      },
      {
        "key": "operator/type",
        "label": "Typ av operatör",
        "type": "combo"
      },
      {
        "key": "building",
        "label": "Byggnad",
        "type": "combo"
      },
      {
        "key": "recycling_accepts",
        "label": "Accepterar",
        "type": "multiCombo"
      }
    ]
  },
  "amenity/ranger_station": {
    "name": "Friluftsanläggningen",
    "fields": [
      {
        "key": "operator",
        "label": "Operatör",
        "type": "text"
      },
      {
        "key": "building_area_yes",
        "label": null,
        "type": "combo"
      }
    ]
  },
  "amenity/pub": {
    "name": "Pub",
    "fields": [
      {
        "key": "building_area_yes",
        "label": null,
        "type": "combo"
      },
      {
        "key": "smoking",
        "label": "Rökning",
        "type": "combo"
      },
      {
        "key": "brewery",
        "label": "Ölmärken",
        "type": "semiCombo"
      }
    ]
  },
  "amenity/prison": {
    "name": "Fängelseområde",
    "fields": [
      {
        "key": "operator",
        "label": "Operatör",
        "type": "text"
      },
      {
        "key": "operator/type",
        "label": "Typ av operatör",
        "type": "combo"
      }
    ]
  },
  "amenity/prep_school": {
    "name": "Pluggskola",
    "fields": [
      {
        "key": "operator",
        "label": "Operatör",
        "type": "text"
      },
      {
        "key": "building_area_yes",
        "label": null,
        "type": "combo"
      }
    ]
  },
  "amenity/post_office": {
    "name": "Postkontor",
    "fields": [
      {
        "key": "operator",
        "label": "Operatör",
        "type": "text"
      },
      {
        "key": "building_area_yes",
        "label": null,
        "type": "combo"
      }
    ]
  },
  "amenity/post_depot": {
    "name": "Postsorteringskontor",
    "fields": [
      {
        "key": "operator",
        "label": "Operatör",
        "type": "text"
      }
    ]
  },
  "amenity/polling_station": {
    "name": "Permanent vallokal",
    "fields": [
      {
        "key": "ref",
        "label": "Referenskod",
        "type": "text"
      },
      {
        "key": "operator",
        "label": "Operatör",
        "type": "text"
      },
      {
        "key": "building_area_yes",
        "label": null,
        "type": "combo"
      }
    ]
  },
  "amenity/police": {
    "name": "Polis",
    "fields": [
      {
        "key": "operator",
        "label": "Operatör",
        "type": "text"
      },
      {
        "key": "building_area_yes",
        "label": null,
        "type": "combo"
      }
    ]
  },
  "amenity/planetarium": {
    "name": "Planetarium",
    "fields": [
      {
        "key": "operator",
        "label": "Operatör",
        "type": "text"
      },
      {
        "key": "building_area_yes",
        "label": null,
        "type": "combo"
      }
    ]
  },
  "amenity/photo_booth": {
    "name": "Fotoautomat",
    "fields": [
      {
        "key": "operator",
        "label": "Operatör",
        "type": "text"
      },
      {
        "key": "payment_multi",
        "label": "Betalningssätt",
        "type": "multiCombo"
      }
    ]
  },
  "amenity/pharmacy": {
    "name": "Läkemedel",
    "fields": [
      {
        "key": "operator",
        "label": "Operatör",
        "type": "text"
      },
      {
        "key": "building_area_yes",
        "label": null,
        "type": "combo"
      },
      {
        "key": "dispensing",
        "label": "Receptbelagda läkemedel ",
        "type": "check"
      },
      {
        "key": "drive_through",
        "label": "Genomkörning (Drive-through)",
        "type": "check"
      }
    ]
  },
  "amenity/payment_terminal": {
    "name": "Betalningsterminal",
    "fields": [
      {
        "key": "brand",
        "label": "Varumärke",
        "type": "text"
      },
      {
        "key": "payment_multi",
        "label": "Betalningssätt",
        "type": "multiCombo"
      }
    ]
  },
  "amenity/payment_centre": {
    "name": "Betalningscenter",
    "fields": [
      {
        "key": "brand",
        "label": "Varumärke",
        "type": "text"
      },
      {
        "key": "building_area_yes",
        "label": null,
        "type": "combo"
      },
      {
        "key": "payment_multi",
        "label": "Betalningssätt",
        "type": "multiCombo"
      }
    ]
  },
  "amenity/parcel_locker": {
    "name": "Paketautomat (utlämning)",
    "fields": [
      {
        "key": "operator",
        "label": "Operatör",
        "type": "text"
      },
      {
        "key": "parcel_pickup",
        "label": "Uthämtning paket",
        "type": "check"
      },
      {
        "key": "parcel_dropoff",
        "label": "Avlämning av paket",
        "type": "check"
      },
      {
        "key": "payment_multi",
        "label": "Betalningssätt",
        "type": "multiCombo"
      },
      {
        "key": "ref",
        "label": "Referenskod",
        "type": "text"
      }
    ]
  },
  "amenity/nightclub": {
    "name": "Nattklubb",
    "fields": [
      {
        "key": "operator",
        "label": "Operatör",
        "type": "text"
      },
      {
        "key": "building_area_yes",
        "label": null,
        "type": "combo"
      },
      {
        "key": "min_age",
        "label": "Lägsta ålder",
        "type": "number"
      },
      {
        "key": "smoking",
        "label": "Rökning",
        "type": "combo"
      }
    ]
  },
  "amenity/music_school": {
    "name": "Musikskola",
    "fields": [
      {
        "key": "operator",
        "label": "Operatör",
        "type": "text"
      },
      {
        "key": "building_area_yes",
        "label": null,
        "type": "combo"
      }
    ]
  },
  "amenity/motorcycle_rental": {
    "name": "Motorcykeluthyrning",
    "fields": [
      {
        "key": "operator",
        "label": "Operatör",
        "type": "text"
      },
      {
        "key": "payment_multi",
        "label": "Betalningssätt",
        "type": "multiCombo"
      }
    ]
  },
  "amenity/mortuary": {
    "name": "Bårhus",
    "fields": [
      {
        "key": "operator",
        "label": "Operatör",
        "type": "text"
      }
    ]
  },
  "amenity/money_transfer": {
    "name": "Pengaöverföring",
    "fields": [
      {
        "key": "brand",
        "label": "Varumärke",
        "type": "text"
      },
      {
        "key": "building_area_yes",
        "label": null,
        "type": "combo"
      },
      {
        "key": "payment_multi",
        "label": "Betalningssätt",
        "type": "multiCombo"
      },
      {
        "key": "currency_multi",
        "label": "Valutor",
        "type": "multiCombo"
      }
    ]
  },
  "amenity/monastery": {
    "name": "Klosterområde",
    "fields": [
      {
        "key": "religion",
        "label": "Religion",
        "type": "combo"
      },
      {
        "key": "denomination",
        "label": "Samfund",
        "type": "combo"
      }
    ]
  },
  "amenity/marketplace": {
    "name": "Marknadsplats",
    "fields": [
      {
        "key": "operator",
        "label": "Operatör",
        "type": "text"
      },
      {
        "key": "building",
        "label": "Byggnad",
        "type": "combo"
      }
    ]
  },
  "amenity/love_hotel": {
    "name": "Kärlekshotell",
    "fields": [
      {
        "key": "operator",
        "label": "Operatör",
        "type": "text"
      },
      {
        "key": "building_area_yes",
        "label": null,
        "type": "combo"
      },
      {
        "key": "rooms",
        "label": "Rum",
        "type": "number"
      },
      {
        "key": "internet_access",
        "label": "Internetanslutning",
        "type": "combo"
      },
      {
        "key": "internet_access/fee",
        "label": "Internetåtkomst",
        "type": "combo"
      },
      {
        "key": "internet_access/ssid",
        "label": "Wifi-nätverksnamn",
        "type": "text"
      }
    ]
  },
  "amenity/lounger": {
    "name": "Solstol(ar)",
    "fields": [
      {
        "key": "material",
        "label": "Material",
        "type": "combo"
      },
      {
        "key": "colour",
        "label": "Färg",
        "type": "colour"
      },
      {
        "key": "access_simple",
        "label": "Tillåten åtkomst",
        "type": "combo"
      },
      {
        "key": "lit",
        "label": "Belysning",
        "type": "check"
      }
    ]
  },
  "amenity/loading_dock": {
    "name": "Lastkaj",
    "fields": [
      {
        "key": "ref",
        "label": "Referenskod",
        "type": "text"
      },
      {
        "key": "operator",
        "label": "Operatör",
        "type": "text"
      },
      {
        "key": "access_simple",
        "label": "Tillåten åtkomst",
        "type": "combo"
      },
      {
        "key": "door",
        "label": "Dörr",
        "type": "combo"
      },
      {
        "key": "width",
        "label": "Bredd (meter)",
        "type": "number"
      },
      {
        "key": "height",
        "label": "Höjd (meter)",
        "type": "number"
      }
    ]
  },
  "amenity/library": {
    "name": "Bibliotek",
    "fields": [
      {
        "key": "operator",
        "label": "Operatör",
        "type": "text"
      },
      {
        "key": "operator/type",
        "label": "Typ av operatör",
        "type": "combo"
      },
      {
        "key": "building_area_yes",
        "label": null,
        "type": "combo"
      },
      {
        "key": "ref/isil",
        "label": "ISIL-kod",
        "type": "text"
      },
      {
        "key": "internet_access",
        "label": "Internetanslutning",
        "type": "combo"
      },
      {
        "key": "internet_access/fee",
        "label": "Internetåtkomst",
        "type": "combo"
      },
      {
        "key": "internet_access/ssid",
        "label": "Wifi-nätverksnamn",
        "type": "text"
      }
    ]
  },
  "amenity/letter_box": {
    "name": "Postlåda",
    "fields": [
      {
        "key": "post",
        "label": "Leveransadress",
        "type": "address"
      },
      {
        "key": "access_simple",
        "label": "Tillåten åtkomst",
        "type": "combo"
      },
      {
        "key": "height",
        "label": "Höjd (meter)",
        "type": "number"
      }
    ]
  },
  "amenity/lavoir": {
    "name": "Tvättbrygga",
    "fields": [
      {
        "key": "operator",
        "label": "Operatör",
        "type": "text"
      },
      {
        "key": "operator/type",
        "label": "Typ av operatör",
        "type": "combo"
      },
      {
        "key": "access_simple",
        "label": "Tillåten åtkomst",
        "type": "combo"
      }
    ]
  },
  "amenity/language_school": {
    "name": "Språkskola",
    "fields": [
      {
        "key": "operator",
        "label": "Operatör",
        "type": "text"
      },
      {
        "key": "operator/type",
        "label": "Typ av operatör",
        "type": "combo"
      },
      {
        "key": "building_area_yes",
        "label": null,
        "type": "combo"
      },
      {
        "key": "language_multi",
        "label": "Språk",
        "type": "multiCombo"
      }
    ]
  },
  "amenity/kneipp_water_cure": {
    "name": "Kneipp vattenterapi",
    "fields": [
      {
        "key": "kneipp_water_cure_multi",
        "label": "Bassängtyper",
        "type": "multiCombo"
      },
      {
        "key": "fee",
        "label": "Avgift",
        "type": "check"
      }
    ]
  },
  "amenity/kindergarten": {
    "name": "Förskoleområde",
    "fields": [
      {
        "key": "operator",
        "label": "Operatör",
        "type": "text"
      },
      {
        "key": "operator/type",
        "label": "Typ av operatör",
        "type": "combo"
      },
      {
        "key": "preschool",
        "label": "Förskola",
        "type": "check"
      }
    ]
  },
  "amenity/karaoke_box": {
    "name": "Karaoke Box",
    "fields": [
      {
        "key": "operator",
        "label": "Operatör",
        "type": "text"
      },
      {
        "key": "building_area_yes",
        "label": null,
        "type": "combo"
      }
    ]
  },
  "amenity/internet_cafe": {
    "name": "Internetkafé",
    "fields": [
      {
        "key": "operator",
        "label": "Operatör",
        "type": "text"
      },
      {
        "key": "operator/type",
        "label": "Typ av operatör",
        "type": "combo"
      },
      {
        "key": "building_area_yes",
        "label": null,
        "type": "combo"
      },
      {
        "key": "internet_access",
        "label": "Internetanslutning",
        "type": "combo"
      },
      {
        "key": "internet_access/fee",
        "label": "Internetåtkomst",
        "type": "combo"
      },
      {
        "key": "internet_access/ssid",
        "label": "Wifi-nätverksnamn",
        "type": "text"
      }
    ]
  },
  "amenity/ice_cream": {
    "name": "Glassaffär",
    "fields": [
      {
        "key": "building_area_yes",
        "label": null,
        "type": "combo"
      },
      {
        "key": "outdoor_seating",
        "label": "Utomhusplatser",
        "type": "check"
      }
    ]
  },
  "amenity/hospital": {
    "name": "Sjukhusområde",
    "fields": [
      {
        "key": "operator",
        "label": "Operatör",
        "type": "text"
      },
      {
        "key": "operator/type",
        "label": "Typ av operatör",
        "type": "combo"
      },
      {
        "key": "healthcare/speciality",
        "label": "Specialiteter",
        "type": "semiCombo"
      },
      {
        "key": "emergency",
        "label": "Akut",
        "type": "check"
      }
    ]
  },
  "amenity/give_box": {
    "name": "Bortskänkningslåda",
    "fields": [
      {
        "key": "operator",
        "label": "Operatör",
        "type": "text"
      },
      {
        "key": "access_simple",
        "label": "Tillåten åtkomst",
        "type": "combo"
      }
    ]
  },
  "amenity/gambling": {
    "name": "Spelhall",
    "fields": [
      {
        "key": "{amenity/casino}",
        "label": null,
        "type": ""
      }
    ]
  },
  "amenity/fuel": {
    "name": "Bensinstation",
    "fields": [
      {
        "key": "brand",
        "label": "Varumärke",
        "type": "text"
      },
      {
        "key": "operator",
        "label": "Operatör",
        "type": "text"
      },
      {
        "key": "fuel/fuel_multi",
        "label": "Bränsletyp",
        "type": "multiCombo"
      },
      {
        "key": "fuel/fuel_multi-RU",
        "label": null,
        "type": "multiCombo"
      },
      {
        "key": "self_service",
        "label": "Självbetjäning",
        "type": "check"
      }
    ]
  },
  "amenity/food_court": {
    "name": "Restaurangtorg",
    "fields": [
      {
        "key": "operator",
        "label": "Operatör",
        "type": "text"
      },
      {
        "key": "building_area_yes",
        "label": null,
        "type": "combo"
      },
      {
        "key": "internet_access",
        "label": "Internetanslutning",
        "type": "combo"
      },
      {
        "key": "internet_access/fee",
        "label": "Internetåtkomst",
        "type": "combo"
      },
      {
        "key": "internet_access/ssid",
        "label": "Wifi-nätverksnamn",
        "type": "text"
      }
    ]
  },
  "amenity/fire_station": {
    "name": "Brandstation",
    "fields": [
      {
        "key": "operator",
        "label": "Operatör",
        "type": "text"
      }
    ]
  },
  "amenity/fast_food": {
    "name": "Snabbmat",
    "fields": [
      {
        "key": "cuisine",
        "label": "Typer av mat",
        "type": "semiCombo"
      },
      {
        "key": "diet_multi",
        "label": "Typ av diet",
        "type": "multiCombo"
      },
      {
        "key": "operator",
        "label": "Operatör",
        "type": "text"
      },
      {
        "key": "building_area_yes",
        "label": null,
        "type": "combo"
      },
      {
        "key": "drive_through",
        "label": "Genomkörning (Drive-through)",
        "type": "check"
      }
    ]
  },
  "amenity/exhibition_centre": {
    "name": "Utställningscenter/Mässa",
    "fields": [
      {
        "key": "operator",
        "label": "Operatör",
        "type": "text"
      },
      {
        "key": "operator/type",
        "label": "Typ av operatör",
        "type": "combo"
      },
      {
        "key": "building_area_yes",
        "label": null,
        "type": "combo"
      },
      {
        "key": "internet_access",
        "label": "Internetanslutning",
        "type": "combo"
      },
      {
        "key": "internet_access/fee",
        "label": "Internetåtkomst",
        "type": "combo"
      },
      {
        "key": "internet_access/ssid",
        "label": "Wifi-nätverksnamn",
        "type": "text"
      }
    ]
  },
  "amenity/events_venue": {
    "name": "Evenemangsplats/festlokal",
    "fields": [
      {
        "key": "operator",
        "label": "Operatör",
        "type": "text"
      },
      {
        "key": "building_area_yes",
        "label": null,
        "type": "combo"
      },
      {
        "key": "internet_access",
        "label": "Internetanslutning",
        "type": "combo"
      },
      {
        "key": "internet_access/fee",
        "label": "Internetåtkomst",
        "type": "combo"
      },
      {
        "key": "internet_access/ssid",
        "label": "Wifi-nätverksnamn",
        "type": "text"
      }
    ]
  },
  "amenity/driving_school": {
    "name": "Trafikskola",
    "fields": [
      {
        "key": "operator",
        "label": "Operatör",
        "type": "text"
      },
      {
        "key": "operator/type",
        "label": "Typ av operatör",
        "type": "combo"
      }
    ]
  },
  "amenity/driver_training": {
    "name": "Förarutbildningsplats",
    "fields": [
      {
        "key": "operator",
        "label": "Operatör",
        "type": "text"
      },
      {
        "key": "operator/type",
        "label": "Typ av operatör",
        "type": "combo"
      }
    ]
  },
  "amenity/dressing_room": {
    "name": "Omklädningsrum",
    "fields": [
      {
        "key": "operator",
        "label": "Operatör",
        "type": "text"
      },
      {
        "key": "access_simple",
        "label": "Tillåten åtkomst",
        "type": "combo"
      },
      {
        "key": "gender",
        "label": "Kön",
        "type": "radio"
      }
    ]
  },
  "amenity/dojo": {
    "name": "Dojo / Akademi för kampsport",
    "fields": [
      {
        "key": "sport",
        "label": "Sporter",
        "type": "semiCombo"
      },
      {
        "key": "building_area_yes",
        "label": null,
        "type": "combo"
      }
    ]
  },
  "amenity/doctors": {
    "name": "Doktor",
    "fields": [
      {
        "key": "operator",
        "label": "Operatör",
        "type": "text"
      },
      {
        "key": "healthcare/speciality",
        "label": "Specialiteter",
        "type": "semiCombo"
      },
      {
        "key": "building_area_yes",
        "label": null,
        "type": "combo"
      }
    ]
  },
  "amenity/dive_centre": {
    "name": "Dykcenter",
    "fields": [
      {
        "key": "operator",
        "label": "Operatör",
        "type": "text"
      },
      {
        "key": "building_area_yes",
        "label": null,
        "type": "combo"
      },
      {
        "key": "scuba_diving",
        "label": "Tjänster",
        "type": "multiCombo"
      }
    ]
  },
  "amenity/dentist": {
    "name": "Tandläkare",
    "fields": [
      {
        "key": "operator",
        "label": "Operatör",
        "type": "text"
      },
      {
        "key": "healthcare/speciality",
        "label": "Specialiteter",
        "type": "semiCombo"
      },
      {
        "key": "building_area_yes",
        "label": null,
        "type": "combo"
      }
    ]
  },
  "amenity/crematorium": {
    "name": "Krematorium",
    "fields": []
  },
  "amenity/courthouse": {
    "name": "Domstol",
    "fields": [
      {
        "key": "operator",
        "label": "Operatör",
        "type": "text"
      },
      {
        "key": "building_area_yes",
        "label": null,
        "type": "combo"
      }
    ]
  },
  "amenity/conference_centre": {
    "name": "Kongresscenter",
    "fields": [
      {
        "key": "operator",
        "label": "Operatör",
        "type": "text"
      },
      {
        "key": "operator/type",
        "label": "Typ av operatör",
        "type": "combo"
      },
      {
        "key": "building_area_yes",
        "label": null,
        "type": "combo"
      },
      {
        "key": "internet_access",
        "label": "Internetanslutning",
        "type": "combo"
      },
      {
        "key": "internet_access/fee",
        "label": "Internetåtkomst",
        "type": "combo"
      },
      {
        "key": "internet_access/ssid",
        "label": "Wifi-nätverksnamn",
        "type": "text"
      }
    ]
  },
  "amenity/community_centre": {
    "name": "Samlingslokal",
    "fields": [
      {
        "key": "operator",
        "label": "Operatör",
        "type": "text"
      },
      {
        "key": "operator/type",
        "label": "Typ av operatör",
        "type": "combo"
      },
      {
        "key": "building_area_yes",
        "label": null,
        "type": "combo"
      }
    ]
  },
  "amenity/college": {
    "name": "Collegeområde",
    "fields": [
      {
        "key": "operator",
        "label": "Operatör",
        "type": "text"
      },
      {
        "key": "operator/type",
        "label": "Typ av operatör",
        "type": "combo"
      },
      {
        "key": "internet_access",
        "label": "Internetanslutning",
        "type": "combo"
      },
      {
        "key": "internet_access/fee",
        "label": "Internetåtkomst",
        "type": "combo"
      },
      {
        "key": "internet_access/ssid",
        "label": "Wifi-nätverksnamn",
        "type": "text"
      }
    ]
  },
  "amenity/clinic": {
    "name": "Vårdcentral",
    "fields": [
      {
        "key": "operator",
        "label": "Operatör",
        "type": "text"
      },
      {
        "key": "operator/type",
        "label": "Typ av operatör",
        "type": "combo"
      },
      {
        "key": "healthcare/speciality",
        "label": "Specialiteter",
        "type": "semiCombo"
      },
      {
        "key": "building_area_yes",
        "label": null,
        "type": "combo"
      }
    ]
  },
  "amenity/cinema": {
    "name": "Biograf",
    "fields": [
      {
        "key": "screen",
        "label": "Salonger",
        "type": "number"
      },
      {
        "key": "building_area_yes",
        "label": null,
        "type": "combo"
      },
      {
        "key": "payment_multi",
        "label": "Betalningssätt",
        "type": "multiCombo"
      }
    ]
  },
  "amenity/childcare": {
    "name": "Barnomsorg",
    "fields": [
      {
        "key": "operator",
        "label": "Operatör",
        "type": "text"
      },
      {
        "key": "operator/type",
        "label": "Typ av operatör",
        "type": "combo"
      },
      {
        "key": "building_area_yes",
        "label": null,
        "type": "combo"
      }
    ]
  },
  "amenity/casino": {
    "name": "Kasino",
    "fields": [
      {
        "key": "operator",
        "label": "Operatör",
        "type": "text"
      },
      {
        "key": "building_area_yes",
        "label": null,
        "type": "combo"
      },
      {
        "key": "gambling",
        "label": "Spel",
        "type": "semiCombo"
      },
      {
        "key": "smoking",
        "label": "Rökning",
        "type": "combo"
      }
    ]
  },
  "amenity/car_wash": {
    "name": "Biltvätt",
    "fields": [
      {
        "key": "operator",
        "label": "Operatör",
        "type": "text"
      },
      {
        "key": "building_area_yes",
        "label": null,
        "type": "combo"
      },
      {
        "key": "payment_multi",
        "label": "Betalningssätt",
        "type": "multiCombo"
      },
      {
        "key": "self_service",
        "label": "Självbetjäning",
        "type": "check"
      },
      {
        "key": "automated",
        "label": "Automatisk",
        "type": "check"
      }
    ]
  },
  "amenity/car_sharing": {
    "name": "Bildelningsstation",
    "fields": [
      {
        "key": "operator",
        "label": "Operatör",
        "type": "text"
      },
      {
        "key": "operator/type",
        "label": "Typ av operatör",
        "type": "combo"
      },
      {
        "key": "capacity",
        "label": "Kapacitet",
        "type": "number"
      },
      {
        "key": "payment_multi",
        "label": "Betalningssätt",
        "type": "multiCombo"
      },
      {
        "key": "supervised",
        "label": "Övervakad",
        "type": "check"
      }
    ]
  },
  "amenity/car_rental": {
    "name": "Biluthyrning",
    "fields": [
      {
        "key": "operator",
        "label": "Operatör",
        "type": "text"
      },
      {
        "key": "payment_multi",
        "label": "Betalningssätt",
        "type": "multiCombo"
      }
    ]
  },
  "amenity/car_pooling": {
    "name": "Bilpoolstation",
    "fields": [
      {
        "key": "operator",
        "label": "Operatör",
        "type": "text"
      },
      {
        "key": "operator/type",
        "label": "Typ av operatör",
        "type": "combo"
      },
      {
        "key": "capacity",
        "label": "Kapacitet",
        "type": "number"
      },
      {
        "key": "lit",
        "label": "Belysning",
        "type": "check"
      }
    ]
  },
  "amenity/cafe": {
    "name": "Café",
    "fields": [
      {
        "key": "cuisine",
        "label": "Typer av mat",
        "type": "semiCombo"
      },
      {
        "key": "building_area_yes",
        "label": null,
        "type": "combo"
      },
      {
        "key": "outdoor_seating",
        "label": "Utomhusplatser",
        "type": "check"
      },
      {
        "key": "internet_access",
        "label": "Internetanslutning",
        "type": "combo"
      },
      {
        "key": "internet_access/fee",
        "label": "Internetåtkomst",
        "type": "combo"
      },
      {
        "key": "internet_access/ssid",
        "label": "Wifi-nätverksnamn",
        "type": "text"
      }
    ]
  },
  "amenity/bureau_de_change": {
    "name": "Växlingskontor",
    "fields": [
      {
        "key": "operator",
        "label": "Operatör",
        "type": "text"
      },
      {
        "key": "payment_multi",
        "label": "Betalningssätt",
        "type": "multiCombo"
      },
      {
        "key": "currency_multi",
        "label": "Valutor",
        "type": "multiCombo"
      }
    ]
  },
  "amenity/boat_storage": {
    "name": "Båtförvaring",
    "fields": [
      {
        "key": "operator",
        "label": "Operatör",
        "type": "text"
      },
      {
        "key": "access_simple",
        "label": "Tillåten åtkomst",
        "type": "combo"
      },
      {
        "key": "capacity",
        "label": "Kapacitet",
        "type": "number"
      }
    ]
  },
  "amenity/boat_rental": {
    "name": "Båtuthyrning",
    "fields": [
      {
        "key": "operator",
        "label": "Operatör",
        "type": "text"
      },
      {
        "key": "operator/type",
        "label": "Typ av operatör",
        "type": "combo"
      },
      {
        "key": "fee",
        "label": "Avgift",
        "type": "check"
      },
      {
        "key": "payment_multi_fee",
        "label": null,
        "type": "multiCombo"
      },
      {
        "key": "charge_fee",
        "label": "Avgiftsbelopp",
        "type": "text"
      }
    ]
  },
  "amenity/binoculars": {
    "name": "Fast monterad kikare",
    "fields": [
      {
        "key": "operator",
        "label": "Operatör",
        "type": "text"
      },
      {
        "key": "access_simple",
        "label": "Tillåten åtkomst",
        "type": "combo"
      },
      {
        "key": "fee",
        "label": "Avgift",
        "type": "check"
      },
      {
        "key": "payment_multi_fee",
        "label": null,
        "type": "multiCombo"
      },
      {
        "key": "charge_fee",
        "label": "Avgiftsbelopp",
        "type": "text"
      },
      {
        "key": "direction",
        "label": "Riktning (grader medurs)",
        "type": "number"
      },
      {
        "key": "height",
        "label": "Höjd (meter)",
        "type": "number"
      },
      {
        "key": "ele_node",
        "label": null,
        "type": "number"
      }
    ]
  },
  "amenity/biergarten": {
    "name": "Ölträdgård",
    "fields": [
      {
        "key": "outdoor_seating",
        "label": "Utomhusplatser",
        "type": "check"
      },
      {
        "key": "brewery",
        "label": "Ölmärken",
        "type": "semiCombo"
      }
    ]
  },
  "amenity/bicycle_rental": {
    "name": "Cykeluthyrning",
    "fields": [
      {
        "key": "capacity",
        "label": "Kapacitet",
        "type": "number"
      },
      {
        "key": "network",
        "label": "Nätverk",
        "type": "text"
      },
      {
        "key": "operator",
        "label": "Operatör",
        "type": "text"
      },
      {
        "key": "operator/type",
        "label": "Typ av operatör",
        "type": "combo"
      },
      {
        "key": "fee",
        "label": "Avgift",
        "type": "check"
      },
      {
        "key": "payment_multi_fee",
        "label": null,
        "type": "multiCombo"
      }
    ]
  },
  "amenity/bar": {
    "name": "Bar",
    "fields": [
      {
        "key": "building_area_yes",
        "label": null,
        "type": "combo"
      },
      {
        "key": "min_age",
        "label": "Lägsta ålder",
        "type": "number"
      },
      {
        "key": "brewery",
        "label": "Ölmärken",
        "type": "semiCombo"
      }
    ]
  },
  "amenity/bank": {
    "name": "Bank",
    "fields": [
      {
        "key": "operator",
        "label": "Operatör",
        "type": "text"
      },
      {
        "key": "building_area_yes",
        "label": null,
        "type": "combo"
      },
      {
        "key": "atm",
        "label": "Uttagsautomat",
        "type": "check"
      },
      {
        "key": "drive_through",
        "label": "Genomkörning (Drive-through)",
        "type": "check"
      }
    ]
  },
  "amenity/arts_centre": {
    "name": "Konstcenter",
    "fields": [
      {
        "key": "building_area_yes",
        "label": null,
        "type": "combo"
      }
    ]
  },
  "amenity/animal_shelter": {
    "name": "Djurhem",
    "fields": [
      {
        "key": "operator",
        "label": "Operatör",
        "type": "text"
      },
      {
        "key": "animal_shelter",
        "label": "För djur",
        "type": "semiCombo"
      }
    ]
  },
  "amenity/animal_breeding": {
    "name": "Djuruppfödning",
    "fields": [
      {
        "key": "operator",
        "label": "Operatör",
        "type": "text"
      },
      {
        "key": "animal_breeding",
        "label": "För djur",
        "type": "semiCombo"
      }
    ]
  },
  "amenity/animal_boarding": {
    "name": "Djurhotell",
    "fields": [
      {
        "key": "operator",
        "label": "Operatör",
        "type": "text"
      },
      {
        "key": "animal_boarding",
        "label": "För djur",
        "type": "semiCombo"
      }
    ]
  },
  "amenity/nursing_home": {
    "name": "Vårdhem",
    "fields": [
      {
        "key": "{amenity/social_facility}",
        "label": null,
        "type": ""
      }
    ]
  },
  "amenity/ferry_terminal": {
    "name": "Färjeterminal",
    "fields": [
      {
        "key": "network",
        "label": "Nätverk",
        "type": "text"
      },
      {
        "key": "operator",
        "label": "Operatör",
        "type": "text"
      }
    ]
  },
  "amenity/embassy": {
    "name": "Ambassad",
    "fields": [
      {
        "key": "country",
        "label": "Land",
        "type": "combo"
      },
      {
        "key": "building_area_yes",
        "label": null,
        "type": "combo"
      }
    ]
  },
  "amenity/bus_station": {
    "name": "Busstation / Bussterminal",
    "fields": [
      {
        "key": "operator",
        "label": "Operatör",
        "type": "text"
      },
      {
        "key": "internet_access",
        "label": "Internetanslutning",
        "type": "combo"
      },
      {
        "key": "internet_access/fee",
        "label": "Internetåtkomst",
        "type": "combo"
      },
      {
        "key": "internet_access/ssid",
        "label": "Wifi-nätverksnamn",
        "type": "text"
      }
    ]
  }
}